PCBNEW-LibModule-V1  Mon 04 Mar 2013 11:46:55 AM MST
# encoding utf-8
Units mm
$INDEX
BEAGLEBONE
HOLE
SOIC6
SOIC8
bornier10
bornier20
$EndINDEX
$MODULE BEAGLEBONE
Po 0 0 0 15 513229D0 00000000 ~~
Li BEAGLEBONE
Sc 0
AR /4EF8FA32
Op 0 0 0
T0 0 1.778 1.524 1.524 0 0.3048 N I 21 N "U1"
T1 0 -1.143 1.524 1.524 0 0.3048 N I 21 N "BEAGLEBONE"
DS -34.29 20.32 -34.29 27.94 0.381 21
DS -34.29 27.94 25.4 27.94 0.381 21
DS 25.4 27.94 25.4 20.32 0.381 21
DS 25.4 20.32 -34.29 20.32 0.381 21
DS -34.29 -27.94 25.4 -27.94 0.381 21
DS 25.4 -27.94 25.4 -20.32 0.381 21
DS 25.4 -20.32 -34.29 -20.32 0.381 21
DS -34.29 -20.32 -34.29 -27.94 0.381 21
$PAD
Sh "C1" R 1.651 1.651 0 0 0
Dr 1.016 0 0
At STD N 00E0FFFF
Ne 0 ""
Po 23.495 -25.4
$EndPAD
$PAD
Sh "C2" C 1.30048 1.30048 0 0 0
Dr 0.8001 0 0
At STD N 00E0FFFF
Ne 0 ""
Po 23.495 -22.86
$EndPAD
$PAD
Sh "C3" C 1.30048 1.30048 0 0 0
Dr 0.8001 0 0
At STD N 00E0FFFF
Ne 0 ""
Po 20.955 -25.4
$EndPAD
$PAD
Sh "C4" C 1.30048 1.30048 0 0 0
Dr 0.8001 0 0
At STD N 00E0FFFF
Ne 0 ""
Po 20.955 -22.86
$EndPAD
$PAD
Sh "C5" C 1.30048 1.30048 0 0 0
Dr 0.8001 0 0
At STD N 00E0FFFF
Ne 0 ""
Po 18.415 -25.4
$EndPAD
$PAD
Sh "C6" C 1.30048 1.30048 0 0 0
Dr 0.8001 0 0
At STD N 00E0FFFF
Ne 0 ""
Po 18.415 -22.86
$EndPAD
$PAD
Sh "C7" C 1.30048 1.30048 0 0 0
Dr 0.8001 0 0
At STD N 00E0FFFF
Ne 0 ""
Po 15.875 -25.4
$EndPAD
$PAD
Sh "C8" C 1.30048 1.30048 0 0 0
Dr 0.8001 0 0
At STD N 00E0FFFF
Ne 0 ""
Po 15.875 -22.86
$EndPAD
$PAD
Sh "C9" C 1.30048 1.30048 0 0 0
Dr 0.8001 0 0
At STD N 00E0FFFF
Ne 0 ""
Po 13.335 -25.4
$EndPAD
$PAD
Sh "C10" C 1.30048 1.30048 0 0 0
Dr 0.8001 0 0
At STD N 00E0FFFF
Ne 0 ""
Po 13.335 -22.86
$EndPAD
$PAD
Sh "C11" C 1.30048 1.30048 0 0 0
Dr 0.8001 0 0
At STD N 00E0FFFF
Ne 0 ""
Po 10.795 -25.4
$EndPAD
$PAD
Sh "C12" C 1.30048 1.30048 0 0 0
Dr 0.8001 0 0
At STD N 00E0FFFF
Ne 0 ""
Po 10.795 -22.86
$EndPAD
$PAD
Sh "C13" C 1.30048 1.30048 0 0 0
Dr 0.8001 0 0
At STD N 00E0FFFF
Ne 0 ""
Po 8.255 -25.4
$EndPAD
$PAD
Sh "C14" C 1.30048 1.30048 0 0 0
Dr 0.8001 0 0
At STD N 00E0FFFF
Ne 0 ""
Po 8.255 -22.86
$EndPAD
$PAD
Sh "C15" C 1.30048 1.30048 0 0 0
Dr 0.8001 0 0
At STD N 00E0FFFF
Ne 0 ""
Po 5.715 -25.4
$EndPAD
$PAD
Sh "C16" C 1.30048 1.30048 0 0 0
Dr 0.8001 0 0
At STD N 00E0FFFF
Ne 0 ""
Po 5.715 -22.86
$EndPAD
$PAD
Sh "C17" C 1.30048 1.30048 0 0 0
Dr 0.8001 0 0
At STD N 00E0FFFF
Ne 0 ""
Po 3.175 -25.4
$EndPAD
$PAD
Sh "C18" C 1.30048 1.30048 0 0 0
Dr 0.8001 0 0
At STD N 00E0FFFF
Ne 0 ""
Po 3.175 -22.86
$EndPAD
$PAD
Sh "C19" C 1.30048 1.30048 0 0 0
Dr 0.8001 0 0
At STD N 00E0FFFF
Ne 0 ""
Po 0.635 -25.4
$EndPAD
$PAD
Sh "C20" C 1.30048 1.30048 0 0 0
Dr 0.8001 0 0
At STD N 00E0FFFF
Ne 0 ""
Po 0.635 -22.86
$EndPAD
$PAD
Sh "C21" C 1.30048 1.30048 0 0 0
Dr 0.8001 0 0
At STD N 00E0FFFF
Ne 0 ""
Po -1.905 -25.4
$EndPAD
$PAD
Sh "C22" C 1.30048 1.30048 0 0 0
Dr 0.8001 0 0
At STD N 00E0FFFF
Ne 0 ""
Po -1.905 -22.86
$EndPAD
$PAD
Sh "C23" C 1.30048 1.30048 0 0 0
Dr 0.8001 0 0
At STD N 00E0FFFF
Ne 0 ""
Po -4.445 -25.4
$EndPAD
$PAD
Sh "C24" C 1.30048 1.30048 0 0 0
Dr 0.8001 0 0
At STD N 00E0FFFF
Ne 0 ""
Po -4.445 -22.86
$EndPAD
$PAD
Sh "C25" C 1.30048 1.30048 0 0 0
Dr 0.8001 0 0
At STD N 00E0FFFF
Ne 0 ""
Po -6.985 -25.4
$EndPAD
$PAD
Sh "C26" C 1.30048 1.30048 0 0 0
Dr 0.8001 0 0
At STD N 00E0FFFF
Ne 0 ""
Po -6.985 -22.86
$EndPAD
$PAD
Sh "C27" C 1.30048 1.30048 0 0 0
Dr 0.8001 0 0
At STD N 00E0FFFF
Ne 0 ""
Po -9.525 -25.4
$EndPAD
$PAD
Sh "C28" C 1.30048 1.30048 0 0 0
Dr 0.8001 0 0
At STD N 00E0FFFF
Ne 0 ""
Po -9.525 -22.86
$EndPAD
$PAD
Sh "C29" C 1.30048 1.30048 0 0 0
Dr 0.8001 0 0
At STD N 00E0FFFF
Ne 0 ""
Po -12.065 -25.4
$EndPAD
$PAD
Sh "C30" C 1.30048 1.30048 0 0 0
Dr 0.8001 0 0
At STD N 00E0FFFF
Ne 0 ""
Po -12.065 -22.86
$EndPAD
$PAD
Sh "C31" C 1.30048 1.30048 0 0 0
Dr 0.8001 0 0
At STD N 00E0FFFF
Ne 0 ""
Po -14.605 -25.4
$EndPAD
$PAD
Sh "C32" C 1.30048 1.30048 0 0 0
Dr 0.8001 0 0
At STD N 00E0FFFF
Ne 0 ""
Po -14.605 -22.86
$EndPAD
$PAD
Sh "C33" C 1.30048 1.30048 0 0 0
Dr 0.8001 0 0
At STD N 00E0FFFF
Ne 0 ""
Po -17.145 -25.4
$EndPAD
$PAD
Sh "C34" C 1.30048 1.30048 0 0 0
Dr 0.8001 0 0
At STD N 00E0FFFF
Ne 0 ""
Po -17.145 -22.86
$EndPAD
$PAD
Sh "C35" C 1.30048 1.30048 0 0 0
Dr 0.8001 0 0
At STD N 00E0FFFF
Ne 0 ""
Po -19.685 -25.4
$EndPAD
$PAD
Sh "C36" C 1.30048 1.30048 0 0 0
Dr 0.8001 0 0
At STD N 00E0FFFF
Ne 0 ""
Po -19.685 -22.86
$EndPAD
$PAD
Sh "C37" C 1.30048 1.30048 0 0 0
Dr 0.8001 0 0
At STD N 00E0FFFF
Ne 0 ""
Po -22.225 -25.4
$EndPAD
$PAD
Sh "C38" C 1.30048 1.30048 0 0 0
Dr 0.8001 0 0
At STD N 00E0FFFF
Ne 0 ""
Po -22.225 -22.86
$EndPAD
$PAD
Sh "C39" C 1.30048 1.30048 0 0 0
Dr 0.8001 0 0
At STD N 00E0FFFF
Ne 0 ""
Po -24.765 -25.4
$EndPAD
$PAD
Sh "C40" C 1.30048 1.30048 0 0 0
Dr 0.8001 0 0
At STD N 00E0FFFF
Ne 0 ""
Po -24.765 -22.86
$EndPAD
$PAD
Sh "C41" C 1.30048 1.30048 0 0 0
Dr 0.8001 0 0
At STD N 00E0FFFF
Ne 0 ""
Po -27.305 -25.4
$EndPAD
$PAD
Sh "C42" C 1.30048 1.30048 0 0 0
Dr 0.8001 0 0
At STD N 00E0FFFF
Ne 0 ""
Po -27.305 -22.86
$EndPAD
$PAD
Sh "C43" C 1.30048 1.30048 0 0 0
Dr 0.8001 0 0
At STD N 00E0FFFF
Ne 0 ""
Po -29.845 -25.4
$EndPAD
$PAD
Sh "C44" C 1.30048 1.30048 0 0 0
Dr 0.8001 0 0
At STD N 00E0FFFF
Ne 0 ""
Po -29.845 -22.86
$EndPAD
$PAD
Sh "C45" C 1.30048 1.30048 0 0 0
Dr 0.8001 0 0
At STD N 00E0FFFF
Ne 0 ""
Po -32.385 -25.4
$EndPAD
$PAD
Sh "C46" C 1.30048 1.30048 0 0 0
Dr 0.8001 0 0
At STD N 00E0FFFF
Ne 0 ""
Po -32.385 -22.86
$EndPAD
$PAD
Sh "B1" R 1.651 1.651 0 0 0
Dr 1.016 0 0
At STD N 00E0FFFF
Ne 0 ""
Po 23.495 22.86
$EndPAD
$PAD
Sh "B2" C 1.30048 1.30048 0 0 0
Dr 0.8001 0 0
At STD N 00E0FFFF
Ne 0 ""
Po 23.495 25.4
$EndPAD
$PAD
Sh "B3" C 1.30048 1.30048 0 0 0
Dr 0.8001 0 0
At STD N 00E0FFFF
Ne 0 ""
Po 20.955 22.86
$EndPAD
$PAD
Sh "B4" C 1.30048 1.30048 0 0 0
Dr 0.8001 0 0
At STD N 00E0FFFF
Ne 0 ""
Po 20.955 25.4
$EndPAD
$PAD
Sh "B5" C 1.30048 1.30048 0 0 0
Dr 0.8001 0 0
At STD N 00E0FFFF
Ne 0 ""
Po 18.415 22.86
$EndPAD
$PAD
Sh "B6" C 1.30048 1.30048 0 0 0
Dr 0.8001 0 0
At STD N 00E0FFFF
Ne 0 ""
Po 18.415 25.4
$EndPAD
$PAD
Sh "B7" C 1.30048 1.30048 0 0 0
Dr 0.8001 0 0
At STD N 00E0FFFF
Ne 0 ""
Po 15.875 22.86
$EndPAD
$PAD
Sh "B8" C 1.30048 1.30048 0 0 0
Dr 0.8001 0 0
At STD N 00E0FFFF
Ne 0 ""
Po 15.875 25.4
$EndPAD
$PAD
Sh "B9" C 1.30048 1.30048 0 0 0
Dr 0.8001 0 0
At STD N 00E0FFFF
Ne 0 ""
Po 13.335 22.86
$EndPAD
$PAD
Sh "B10" C 1.30048 1.30048 0 0 0
Dr 0.8001 0 0
At STD N 00E0FFFF
Ne 0 ""
Po 13.335 25.4
$EndPAD
$PAD
Sh "B11" C 1.30048 1.30048 0 0 0
Dr 0.8001 0 0
At STD N 00E0FFFF
Ne 0 ""
Po 10.795 22.86
$EndPAD
$PAD
Sh "B12" C 1.30048 1.30048 0 0 0
Dr 0.8001 0 0
At STD N 00E0FFFF
Ne 0 ""
Po 10.795 25.4
$EndPAD
$PAD
Sh "B13" C 1.30048 1.30048 0 0 0
Dr 0.8001 0 0
At STD N 00E0FFFF
Ne 0 ""
Po 8.255 22.86
$EndPAD
$PAD
Sh "B14" C 1.30048 1.30048 0 0 0
Dr 0.8001 0 0
At STD N 00E0FFFF
Ne 0 ""
Po 8.255 25.4
$EndPAD
$PAD
Sh "B15" C 1.30048 1.30048 0 0 0
Dr 0.8001 0 0
At STD N 00E0FFFF
Ne 0 ""
Po 5.715 22.86
$EndPAD
$PAD
Sh "B16" C 1.30048 1.30048 0 0 0
Dr 0.8001 0 0
At STD N 00E0FFFF
Ne 0 ""
Po 5.715 25.4
$EndPAD
$PAD
Sh "B17" C 1.30048 1.30048 0 0 0
Dr 0.8001 0 0
At STD N 00E0FFFF
Ne 0 ""
Po 3.175 22.86
$EndPAD
$PAD
Sh "B18" C 1.30048 1.30048 0 0 0
Dr 0.8001 0 0
At STD N 00E0FFFF
Ne 0 ""
Po 3.175 25.4
$EndPAD
$PAD
Sh "B19" C 1.30048 1.30048 0 0 0
Dr 0.8001 0 0
At STD N 00E0FFFF
Ne 0 ""
Po 0.635 22.86
$EndPAD
$PAD
Sh "B20" C 1.30048 1.30048 0 0 0
Dr 0.8001 0 0
At STD N 00E0FFFF
Ne 0 ""
Po 0.635 25.4
$EndPAD
$PAD
Sh "B21" C 1.30048 1.30048 0 0 0
Dr 0.8001 0 0
At STD N 00E0FFFF
Ne 0 ""
Po -1.905 22.86
$EndPAD
$PAD
Sh "B22" C 1.30048 1.30048 0 0 0
Dr 0.8001 0 0
At STD N 00E0FFFF
Ne 0 ""
Po -1.905 25.4
$EndPAD
$PAD
Sh "B23" C 1.30048 1.30048 0 0 0
Dr 0.8001 0 0
At STD N 00E0FFFF
Ne 0 ""
Po -4.445 22.86
$EndPAD
$PAD
Sh "B24" C 1.30048 1.30048 0 0 0
Dr 0.8001 0 0
At STD N 00E0FFFF
Ne 0 ""
Po -4.445 25.4
$EndPAD
$PAD
Sh "B25" C 1.30048 1.30048 0 0 0
Dr 0.8001 0 0
At STD N 00E0FFFF
Ne 0 ""
Po -6.985 22.86
$EndPAD
$PAD
Sh "B26" C 1.30048 1.30048 0 0 0
Dr 0.8001 0 0
At STD N 00E0FFFF
Ne 0 ""
Po -6.985 25.4
$EndPAD
$PAD
Sh "B27" C 1.30048 1.30048 0 0 0
Dr 0.8001 0 0
At STD N 00E0FFFF
Ne 0 ""
Po -9.525 22.86
$EndPAD
$PAD
Sh "B28" C 1.30048 1.30048 0 0 0
Dr 0.8001 0 0
At STD N 00E0FFFF
Ne 0 ""
Po -9.525 25.4
$EndPAD
$PAD
Sh "B29" C 1.30048 1.30048 0 0 0
Dr 0.8001 0 0
At STD N 00E0FFFF
Ne 0 ""
Po -12.065 22.86
$EndPAD
$PAD
Sh "B30" C 1.30048 1.30048 0 0 0
Dr 0.8001 0 0
At STD N 00E0FFFF
Ne 0 ""
Po -12.065 25.4
$EndPAD
$PAD
Sh "B31" C 1.30048 1.30048 0 0 0
Dr 0.8001 0 0
At STD N 00E0FFFF
Ne 0 ""
Po -14.605 22.86
$EndPAD
$PAD
Sh "B32" C 1.30048 1.30048 0 0 0
Dr 0.8001 0 0
At STD N 00E0FFFF
Ne 0 ""
Po -14.605 25.4
$EndPAD
$PAD
Sh "B33" C 1.30048 1.30048 0 0 0
Dr 0.8001 0 0
At STD N 00E0FFFF
Ne 0 ""
Po -17.145 22.86
$EndPAD
$PAD
Sh "B34" C 1.30048 1.30048 0 0 0
Dr 0.8001 0 0
At STD N 00E0FFFF
Ne 0 ""
Po -17.145 25.4
$EndPAD
$PAD
Sh "B35" C 1.30048 1.30048 0 0 0
Dr 0.8001 0 0
At STD N 00E0FFFF
Ne 0 ""
Po -19.685 22.86
$EndPAD
$PAD
Sh "B36" C 1.30048 1.30048 0 0 0
Dr 0.8001 0 0
At STD N 00E0FFFF
Ne 0 ""
Po -19.685 25.4
$EndPAD
$PAD
Sh "B37" C 1.30048 1.30048 0 0 0
Dr 0.8001 0 0
At STD N 00E0FFFF
Ne 0 ""
Po -22.225 22.86
$EndPAD
$PAD
Sh "B38" C 1.30048 1.30048 0 0 0
Dr 0.8001 0 0
At STD N 00E0FFFF
Ne 0 ""
Po -22.225 25.4
$EndPAD
$PAD
Sh "B39" C 1.30048 1.30048 0 0 0
Dr 0.8001 0 0
At STD N 00E0FFFF
Ne 0 ""
Po -24.765 22.86
$EndPAD
$PAD
Sh "B40" C 1.30048 1.30048 0 0 0
Dr 0.8001 0 0
At STD N 00E0FFFF
Ne 0 ""
Po -24.765 25.4
$EndPAD
$PAD
Sh "B41" C 1.30048 1.30048 0 0 0
Dr 0.8001 0 0
At STD N 00E0FFFF
Ne 0 ""
Po -27.305 22.86
$EndPAD
$PAD
Sh "B42" C 1.30048 1.30048 0 0 0
Dr 0.8001 0 0
At STD N 00E0FFFF
Ne 0 ""
Po -27.305 25.4
$EndPAD
$PAD
Sh "B43" C 1.30048 1.30048 0 0 0
Dr 0.8001 0 0
At STD N 00E0FFFF
Ne 0 ""
Po -29.845 22.86
$EndPAD
$PAD
Sh "B44" C 1.30048 1.30048 0 0 0
Dr 0.8001 0 0
At STD N 00E0FFFF
Ne 0 ""
Po -29.845 25.4
$EndPAD
$PAD
Sh "B45" C 1.30048 1.30048 0 0 0
Dr 0.8001 0 0
At STD N 00E0FFFF
Ne 0 ""
Po -32.385 22.86
$EndPAD
$PAD
Sh "B46" C 1.30048 1.30048 0 0 0
Dr 0.8001 0 0
At STD N 00E0FFFF
Ne 0 ""
Po -32.385 25.4
$EndPAD
$EndMODULE BEAGLEBONE
$MODULE HOLE
Po 0 0 0 15 5134EC12 00000000 ~~
Li HOLE
Sc 0
AR /4EF8FA32
Op 0 0 0
T0 0 3.81 1.524 1.524 0 0.3048 N I 21 N "M1"
T1 0 -3.81 1.524 1.524 0 0.3048 N I 21 N "HOLE"
$PAD
Sh "" C 4.572 4.572 0 0 0
Dr 3.175 0 0
At STD N 00E0FFFF
Ne 0 ""
Po 0 0
$EndPAD
$EndMODULE HOLE
$MODULE SOIC6
Po 0 0 0 15 512B7A59 49A2B15E ~~
Li SOIC6
Sc 49A2B15E
AR 
Op 0 0 0
T0 -0.635 0 0.889 0.762 0 0.1524 N V 21 N "SOIC6"
T1 -3.302 0 0.889 0.762 900 0.1524 N V 21 N "VAL**"
DC -2.7432 2.9972 -2.6162 2.9464 0.1778 21
DS -2.286 -2.794 -2.54 -2.794 0.1524 21
DS -2.54 -2.794 -2.54 2.794 0.1524 21
DS -2.54 2.794 -2.286 2.794 0.1524 21
DS 1.27 2.794 1.27 -2.794 0.1524 21
DS 1.27 -2.794 1.016 -2.794 0.1524 21
DS 1.27 2.794 1.016 2.794 0.1524 21
$PAD
Sh "1" R 0.59944 2.19964 0 0 0
Dr 0 0 0
At SMD N 00888000
Ne 0 ""
Po -1.905 2.60096
$EndPAD
$PAD
Sh "2" R 0.59944 2.19964 0 0 0
Dr 0 0 0
At SMD N 00888000
Ne 0 ""
Po -0.635 2.60096
$EndPAD
$PAD
Sh "3" R 0.59944 2.19964 0 0 0
Dr 0 0 0
At SMD N 00888000
Ne 0 ""
Po 0.635 2.60096
$EndPAD
$PAD
Sh "4" R 0.59944 2.19964 0 0 0
Dr 0 0 0
At SMD N 00888000
Ne 0 ""
Po 0.635 -2.59842
$EndPAD
$PAD
Sh "5" R 0.59944 2.19964 0 0 0
Dr 0 0 0
At SMD N 00888000
Ne 0 ""
Po -0.635 -2.59842
$EndPAD
$PAD
Sh "6" R 0.59944 2.19964 0 0 0
Dr 0 0 0
At SMD N 00888000
Ne 0 ""
Po -1.905 -2.59842
$EndPAD
$EndMODULE SOIC6
$MODULE SOIC8
Po 0 0 0 15 512B8044 00000000 ~~
Li SOIC8
Sc 0
AR 
Op 0 0 0
T0 0 0 0.889 0.762 0 0.1524 N V 21 N "SOIC8"
T1 -3.429 0 0.889 0.762 900 0.1524 N V 21 N "VAL**"
DC -2.7432 2.9972 -2.6162 2.9464 0.1778 21
DS -2.286 -2.794 -2.54 -2.794 0.1524 21
DS -2.54 -2.794 -2.54 2.794 0.1524 21
DS -2.54 2.794 -2.286 2.794 0.1524 21
DS 2.54 2.794 2.54 -2.794 0.1524 21
DS 2.54 -2.794 2.286 -2.794 0.1524 21
DS 2.54 2.794 2.286 2.794 0.1524 21
$PAD
Sh "1" R 0.59944 2.19964 0 0 0
Dr 0 0 0
At SMD N 00888000
Ne 0 ""
Po -1.905 2.60096
$EndPAD
$PAD
Sh "2" R 0.59944 2.19964 0 0 0
Dr 0 0 0
At SMD N 00888000
Ne 0 ""
Po -0.635 2.60096
$EndPAD
$PAD
Sh "3" R 0.59944 2.19964 0 0 0
Dr 0 0 0
At SMD N 00888000
Ne 0 ""
Po 0.635 2.60096
$EndPAD
$PAD
Sh "4" R 0.59944 2.19964 0 0 0
Dr 0 0 0
At SMD N 00888000
Ne 0 ""
Po 1.905 2.60096
$EndPAD
$PAD
Sh "5" R 0.59944 2.19964 0 0 0
Dr 0 0 0
At SMD N 00888000
Ne 0 ""
Po 1.905 -2.59842
$EndPAD
$PAD
Sh "6" R 0.59944 2.19964 0 0 0
Dr 0 0 0
At SMD N 00888000
Ne 0 ""
Po 0.635 -2.59842
$EndPAD
$PAD
Sh "7" R 0.59944 2.19964 0 0 0
Dr 0 0 0
At SMD N 00888000
Ne 0 ""
Po -0.635 -2.59842
$EndPAD
$PAD
Sh "8" R 0.59944 2.19964 0 0 0
Dr 0 0 0
At SMD N 00888000
Ne 0 ""
Po -1.905 -2.59842
$EndPAD
$EndMODULE SOIC8
$MODULE bornier10
Po 0 0 0 15 51335735 00000000 ~~
Li bornier10
Cd Bornier d'alimentation 4 pins
Kw DEV
Sc 0
AR 
Op 0 0 0
T0 0 -5.08 2.032 2.032 0 0.254 N V 21 N "P***"
T1 0 5.08 2.032 2.032 0 0.254 N V 21 N "BORNIER10"
DS 12.7 2.54 38.1 2.54 0.3048 21
DS 12.7 -3.81 38.1 -3.81 0.3048 21
DS 38.1 -3.81 38.1 3.81 0.3048 21
DS 38.1 3.81 12.7 3.81 0.3048 21
DS -12.7 3.81 12.7 3.81 0.3048 21
DS -12.7 2.54 12.7 2.54 0.3048 21
DS -12.7 -3.81 12.7 -3.81 0.3048 21
DS -12.7 -3.81 -12.7 3.81 0.3048 21
$PAD
Sh "2" C 3.81 3.81 0 0 0
Dr 1.524 0 0
At STD N 00E0FFFF
Ne 0 ""
Po -5.08 0
$EndPAD
$PAD
Sh "3" C 3.81 3.81 0 0 0
Dr 1.524 0 0
At STD N 00E0FFFF
Ne 0 ""
Po 0 0
$EndPAD
$PAD
Sh "1" R 3.81 3.81 0 0 0
Dr 1.524 0 0
At STD N 00E0FFFF
Ne 0 ""
Po -10.16 0
$EndPAD
$PAD
Sh "4" C 3.81 3.81 0 0 0
Dr 1.524 0 0
At STD N 00E0FFFF
Ne 0 ""
Po 5.08 0
$EndPAD
$PAD
Sh "5" C 3.81 3.81 0 0 0
Dr 1.524 0 0
At STD N 00E0FFFF
Ne 0 ""
Po 10.16 0
$EndPAD
$PAD
Sh "6" C 3.81 3.81 0 0 0
Dr 1.524 0 0
At STD N 00E0FFFF
Ne 0 ""
Po 15.24 0
$EndPAD
$PAD
Sh "7" C 3.81 3.81 0 0 0
Dr 1.524 0 0
At STD N 00E0FFFF
Ne 0 ""
Po 20.32 0
$EndPAD
$PAD
Sh "8" C 3.81 3.81 0 0 0
Dr 1.524 0 0
At STD N 00E0FFFF
Ne 0 ""
Po 25.4 0
$EndPAD
$PAD
Sh "9" C 3.81 3.81 0 0 0
Dr 1.524 0 0
At STD N 00E0FFFF
Ne 0 ""
Po 30.48 0
$EndPAD
$PAD
Sh "10" C 3.81 3.81 0 0 0
Dr 1.524 0 0
At STD N 00E0FFFF
Ne 0 ""
Po 35.56 0
$EndPAD
$SHAPE3D
Na "device/bornier_5.wrl"
Sc 1 1 1
Of 0 0 0
Ro 0 0 0
$EndSHAPE3D
$EndMODULE bornier10
$MODULE bornier20
Po 0 0 0 15 5131000B 00000000 ~~
Li bornier20
Cd Bornier d'alimentation 4 pins
Kw DEV
Sc 0
AR 
Op 0 0 0
T0 0 -5.08 2.032 2.032 0 0.254 N V 21 N "P***"
T1 0 5.08 2.032 2.032 0 0.254 N V 21 N "BORNIER5"
DS 88.9 2.54 88.9 3.81 0.381 21
DS 12.7 3.81 88.9 3.81 0.381 21
DS 12.7 -3.81 88.9 -3.81 0.381 21
DS 88.9 -3.81 88.9 2.54 0.381 21
DS 88.9 2.54 12.7 2.54 0.381 21
DS -12.7 3.81 12.7 3.81 0.3048 21
DS -12.7 2.54 12.7 2.54 0.3048 21
DS -12.7 -3.81 12.7 -3.81 0.3048 21
DS -12.7 -3.81 -12.7 3.81 0.3048 21
$PAD
Sh "2" C 3.81 3.81 0 0 0
Dr 1.524 0 0
At STD N 00E0FFFF
Ne 0 ""
Po -5.08 0
$EndPAD
$PAD
Sh "3" C 3.81 3.81 0 0 0
Dr 1.524 0 0
At STD N 00E0FFFF
Ne 0 ""
Po 0 0
$EndPAD
$PAD
Sh "1" R 3.81 3.81 0 0 0
Dr 1.524 0 0
At STD N 00E0FFFF
Ne 0 ""
Po -10.16 0
$EndPAD
$PAD
Sh "4" C 3.81 3.81 0 0 0
Dr 1.524 0 0
At STD N 00E0FFFF
Ne 0 ""
Po 5.08 0
$EndPAD
$PAD
Sh "5" C 3.81 3.81 0 0 0
Dr 1.524 0 0
At STD N 00E0FFFF
Ne 0 ""
Po 10.16 0
$EndPAD
$PAD
Sh "6" C 3.81 3.81 0 0 0
Dr 1.524 0 0
At STD N 00E0FFFF
Ne 0 ""
Po 15.24 0
$EndPAD
$PAD
Sh "7" C 3.81 3.81 0 0 0
Dr 1.524 0 0
At STD N 00E0FFFF
Ne 0 ""
Po 20.32 0
$EndPAD
$PAD
Sh "8" C 3.81 3.81 0 0 0
Dr 1.524 0 0
At STD N 00E0FFFF
Ne 0 ""
Po 25.4 0
$EndPAD
$PAD
Sh "9" C 3.81 3.81 0 0 0
Dr 1.524 0 0
At STD N 00E0FFFF
Ne 0 ""
Po 30.48 0
$EndPAD
$PAD
Sh "10" C 3.81 3.81 0 0 0
Dr 1.524 0 0
At STD N 00E0FFFF
Ne 0 ""
Po 35.56 0
$EndPAD
$PAD
Sh "11" C 3.81 3.81 0 0 0
Dr 1.524 0 0
At STD N 00E0FFFF
Ne 0 ""
Po 40.64 0
$EndPAD
$PAD
Sh "12" C 3.81 3.81 0 0 0
Dr 1.524 0 0
At STD N 00E0FFFF
Ne 0 ""
Po 45.72 0
$EndPAD
$PAD
Sh "13" C 3.81 3.81 0 0 0
Dr 1.524 0 0
At STD N 00E0FFFF
Ne 0 ""
Po 50.8 0
$EndPAD
$PAD
Sh "14" C 3.81 3.81 0 0 0
Dr 1.524 0 0
At STD N 00E0FFFF
Ne 0 ""
Po 55.88 0
$EndPAD
$PAD
Sh "15" C 3.81 3.81 0 0 0
Dr 1.524 0 0
At STD N 00E0FFFF
Ne 0 ""
Po 60.96 0
$EndPAD
$PAD
Sh "16" C 3.81 3.81 0 0 0
Dr 1.524 0 0
At STD N 00E0FFFF
Ne 0 ""
Po 66.04 0
$EndPAD
$PAD
Sh "17" C 3.81 3.81 0 0 0
Dr 1.524 0 0
At STD N 00E0FFFF
Ne 0 ""
Po 71.12 0
$EndPAD
$PAD
Sh "18" C 3.81 3.81 0 0 0
Dr 1.524 0 0
At STD N 00E0FFFF
Ne 0 ""
Po 76.2 0
$EndPAD
$PAD
Sh "19" C 3.81 3.81 0 0 0
Dr 1.524 0 0
At STD N 00E0FFFF
Ne 0 ""
Po 81.28 0
$EndPAD
$PAD
Sh "20" C 3.81 3.81 0 0 0
Dr 1.524 0 0
At STD N 00E0FFFF
Ne 0 ""
Po 86.36 0
$EndPAD
$SHAPE3D
Na "device/bornier_5.wrl"
Sc 1 1 1
Of 0 0 0
Ro 0 0 0
$EndSHAPE3D
$EndMODULE bornier20
$EndLIBRARY
